{
    "KPackageStructure": "Plasma/Applet",
    "KPlugin": {
        "Authors": [
            {
                "Email": "plasma-devel@kde.org",
                "Name": "The Plasma Team",
                "Name[ar]": "فريق بلازما",
                "Name[ast]": "L'equipu de Plasma",
                "Name[az]": "Plasma komandası",
                "Name[bg]": "Екипът на Plasma",
                "Name[ca@valencia]": "L'equip de Plasma",
                "Name[ca]": "L'equip del Plasma",
                "Name[cs]": "Team Plasma",
                "Name[de]": "Das Plasma-Team",
                "Name[en_GB]": "The Plasma Team",
                "Name[eo]": "La Plasma Teamo",
                "Name[es]": "El equipo de Plasma",
                "Name[eu]": "Plasma taldea",
                "Name[fi]": "Plasma-työryhmä",
                "Name[fr]": "L'équipe de Plasma",
                "Name[gl]": "O equipo de Plasma",
                "Name[ia]": "Le equipa de Plasma",
                "Name[id]": "Tim Plasma",
                "Name[is]": "Plasma-þróunarhópurinn",
                "Name[it]": "La squadra di Plasma",
                "Name[ja]": "Plasma チーム",
                "Name[ka]": "Plasma-ის გუნდი",
                "Name[ko]": "Plasma 팀",
                "Name[lt]": "Plasma komanda",
                "Name[nl]": "Het team van Plasma",
                "Name[nn]": "Utviklingslaget for Plasma",
                "Name[pl]": "Zespół Plazmy",
                "Name[pt]": "A Equipa do Plasma",
                "Name[pt_BR]": "A equipe do Plasma",
                "Name[ro]": "Echipa Plasma",
                "Name[ru]": "Команда разработчиков Plasma",
                "Name[sk]": "Tím Plasma",
                "Name[sl]": "Ekipa Plasme",
                "Name[sv]": "Plasma-gruppen",
                "Name[tr]": "Plasma Takımı",
                "Name[uk]": "Команда розробників Плазми",
                "Name[vi]": "Đội Plasma",
                "Name[x-test]": "xxThe Plasma Teamxx",
                "Name[zh_CN]": "The Plasma Team",
                "Name[zh_TW]": "Plasma 團隊"
            }
        ],
        "Category": "Online Services",
        "Description": "Paste text/images to a remote server",
        "Description[ar]": "ألصق نص/صور في خادم بعيد",
        "Description[az]": "Uzaq serverə mətni/şəkli yerləşdirmək",
        "Description[bg]": "Вмъкване на текст/изображение на отдалечен сървър",
        "Description[ca@valencia]": "Apega text/imatges en un servidor remot",
        "Description[ca]": "Enganxa text/imatges en un servidor remot",
        "Description[cs]": "Vložit text/obrázky na vzdálený server",
        "Description[de]": "Text und Bilder auf einen entfernten Server hochladen",
        "Description[en_GB]": "Paste text/images to a remote server",
        "Description[eo]": "Alglui tekston/bildojn al fora servilo",
        "Description[es]": "Pegar texto/imágenes en un servidor remoto",
        "Description[eu]": "Itsatsi testua/irudiak urruneko zerbitzari batera",
        "Description[fi]": "Liitä tekstiä tai kuvaa etäpalvelimeen",
        "Description[fr]": "Coller du texte ou des images vers un serveur distant",
        "Description[gl]": "Pega texto/imaxes nun servidor remoto",
        "Description[ia]": "Colla texto/imagines a un servitor remote",
        "Description[id]": "Rekatkan teks/gambar ke server jarak jauh",
        "Description[is]": "Líma texta/myndir yfir á fjarlægan þjón",
        "Description[it]": "Incolla testo/immagini su un server remoto",
        "Description[ja]": "テキストや画像をリモートサーバに貼り付けます",
        "Description[ka]": "ჩასვით ტექსტი/გამოსახულებები დაშორებულ სერვერზე",
        "Description[ko]": "원격 서버에 텍스트/이미지 붙여넣기",
        "Description[lt]": "Įdėti tekstą/paveikslus į nuotolinį serverį",
        "Description[nl]": "Tekst/afbeeldingen plakken op een externe server",
        "Description[nn]": "Kopier tekst og bilete til tenar på nettet",
        "Description[pl]": "Wkleja teksty/obrazy na zdalny serwer",
        "Description[pt]": "Colar texto/imagens num servidor remoto",
        "Description[pt_BR]": "Cola textos e imagens em um servidor remoto",
        "Description[ro]": "Lipește text/imagini spre un server distant",
        "Description[ru]": "Временная публикация текста и изображений на удалённых серверах",
        "Description[sk]": "Vkladanie textu/obrázkov na vzdialený server",
        "Description[sl]": "Prilepi besedilo/sliko na oddaljeni strežnik",
        "Description[sv]": "Klistra in text eller bilder på en fjärrserver",
        "Description[tr]": "Uzak sunucuya metin/görsel yapıştır",
        "Description[uk]": "Викласти текст/зображення на віддалений сервер",
        "Description[vi]": "Dán chữ/ảnh vào một máy chủ ở xa",
        "Description[x-test]": "xxPaste text/images to a remote serverxx",
        "Description[zh_CN]": "粘贴文本/图像到远程服务器",
        "Description[zh_TW]": "將文字或影像貼至遠端伺服器",
        "EnabledByDefault": true,
        "FormFactors": [
            "desktop",
            "tablet"
        ],
        "Icon": "emblem-shared-symbolic",
        "Id": "org.kde.plasma.quickshare",
        "License": "GPL-2.0+",
        "Name": "Quick Share",
        "Name[ar]": "المشاركة السريعة",
        "Name[az]": "Sürətli paylaşmaq",
        "Name[bg]": "Бързо споделяне",
        "Name[ca@valencia]": "Compartix ràpidament",
        "Name[ca]": "Comparteix ràpidament",
        "Name[cs]": "Rychlé sdílení",
        "Name[de]": "Schnellfreigabe",
        "Name[en_GB]": "Quick Share",
        "Name[eo]": "Rapida Kunhavigo",
        "Name[es]": "Compartir rápidamente",
        "Name[eu]": "Partekatze azkarra",
        "Name[fi]": "Pikajako",
        "Name[fr]": "Partage rapide",
        "Name[gl]": "Compartir rapidamente",
        "Name[ia]": "Imparti rapide",
        "Name[id]": "Quick Share",
        "Name[is]": "Flýtideiling",
        "Name[it]": "Condivisione rapida",
        "Name[ja]": "クイック共有",
        "Name[ka]": "სწრაფი გაზიარება",
        "Name[ko]": "빠른 공유",
        "Name[lt]": "Spartusis bendrinimas",
        "Name[nl]": "Snel Share maken",
        "Name[nn]": "Snøgg­deling",
        "Name[pl]": "Szybkie udostępnianie",
        "Name[pt]": "Partilha Rápida",
        "Name[pt_BR]": "Compartilhamento rápido",
        "Name[ro]": "Partajare rapidă",
        "Name[ru]": "Быстрая публикация",
        "Name[sk]": "Rýchle zdieľanie",
        "Name[sl]": "Quick Share",
        "Name[sv]": "Snabbdelning",
        "Name[tr]": "Hızlı Paylaş",
        "Name[uk]": "Швидке оприлюднення",
        "Name[vi]": "Chia sẻ nhanh",
        "Name[x-test]": "xxQuick Sharexx",
        "Name[zh_CN]": "快速分享",
        "Name[zh_TW]": "快速分享",
        "Version": "2.0",
        "Website": "https://kde.org/plasma-desktop/"
    },
    "X-Plasma-API": "declarativeappletscript",
    "X-Plasma-MainScript": "ui/main.qml",
    "X-Plasma-StandAloneApp": true
}
