{
    "KPackageStructure": "KWin/WindowSwitcher",
    "KPlugin": {
        "Authors": [
            {
                "Email": "plasma-devel@kde.org",
                "Name": "KDE Visual Design Group",
                "Name[ar]": "مجموعة التصميم المرئي لكِيدِي",
                "Name[bg]": "KDE Visual Design Group",
                "Name[ca@valencia]": "Grup de disseny visual de KDE",
                "Name[ca]": "Grup de disseny visual de KDE",
                "Name[cs]": "Skupina vizuálního návrhu KDE",
                "Name[de]": "KDE Visual Design Group",
                "Name[en_GB]": "KDE Visual Design Group",
                "Name[eo]": "KDE Vida Dezajn-Grupo",
                "Name[es]": "Grupo de diseño visual de KDE",
                "Name[eu]": "KDE Ikus-diseinu taldea",
                "Name[fi]": "KDE:n visuaalinen suunnitteluryhmä",
                "Name[fr]": "Groupe de conception graphique de KDE",
                "Name[gl]": "Grupo de deseño visual de KDE",
                "Name[ia]": "KDE Visual Design Group (Gruppo de Designo Visual de KDE)",
                "Name[it]": "KDE Visual Design Group",
                "Name[ka]": "KDE-ის ვიზუალური დიზაინის ჯგუფი",
                "Name[ko]": "KDE 시각 디자인 그룹",
                "Name[nl]": "KDE Visuele ontwerpgroep",
                "Name[nn]": "KDE Visual Design-gruppa",
                "Name[pl]": "Grupa oprawy graficznej KDE",
                "Name[pt_BR]": "Grupo de design visual do KDE (KDE VDG)",
                "Name[sl]": "Skupina vizualnega designa KDE",
                "Name[tr]": "KDE Görsel Tasarım Grubu",
                "Name[uk]": "Група з візуального дизайну KDE",
                "Name[x-test]": "xxKDE Visual Design Groupxx",
                "Name[zh_CN]": "KDE 视觉设计团队",
                "Name[zh_TW]": "KDE Visual Design Group"
            }
        ],
        "Description": "Window switcher layout using a vertical sidebar",
        "Description[ar]": "مخطط مبدل نوافذ يستخدم شريط جانبي عمودي",
        "Description[bg]": "Оформление на програмата за превключване на прозорци с използване на вертикална странична лента",
        "Description[ca@valencia]": "Una disposició del commutador de finestres que utilitza una barra lateral",
        "Description[ca]": "Una disposició del commutador de finestres que utilitza una barra lateral",
        "Description[cs]": "Přepínač oken s pomocí svislého postranního panelu",
        "Description[de]": "Ein Fensterwechsler-Layout, das eine vertikale Seitenleiste verwendet",
        "Description[en_GB]": "Window switcher layout using a vertical sidebar",
        "Description[eo]": "Fenestra ŝaltilo-aranĝo uzante vertikalan flankbreton",
        "Description[es]": "Esquema de selección de ventanas que usa una barra lateral vertical",
        "Description[eu]": "Alboko-barra bertikal bat erabiltzen duen leiho-trukatzaile antolamendu bat",
        "Description[fi]": "Pystysivupalkkia käyttävä ikkunavaihto",
        "Description[fr]": "Une disposition du sélecteur de fenêtres utilisant un panneau latéral vertical",
        "Description[gl]": "Unha disposición do selector de xanelas que usa unha barra lateral vertical",
        "Description[ia]": "Un disposition de commutator de fenestra usante  un barra lateral vertical",
        "Description[it]": "Disposizione del cambio finestre che utilizza una barra laterale verticale",
        "Description[ka]": "ფანჯრების განლაგების გადართვა ვერტიკალური პანელის საშუალებით",
        "Description[ko]": "수직 사이드바를 사용하는 창 전환기 레이아웃",
        "Description[nl]": "Indeling van de vensterwisselaar met verticale zijbalk",
        "Description[nn]": "Vindaugsbytar som brukar ein loddrett sidestolpe",
        "Description[pl]": "Układ przełącznika okien używający pionowego paska bocznego",
        "Description[sl]": "Okenski preklopnik postavitve, ki uporablja navpični drsnik",
        "Description[tr]": "Dikey bir kenar çubuğu kullanan pencere değiştirici yerleşimi",
        "Description[uk]": "Компонування перемикача вікон за допомогою вертикальної бічної панелі",
        "Description[x-test]": "xxWindow switcher layout using a vertical sidebarxx",
        "Description[zh_CN]": "使用垂直侧边栏的窗口切换器布局",
        "Description[zh_TW]": "使用垂直側邊欄的視窗切換器佈局",
        "Id": "sidebar",
        "License": "GPLv2+",
        "Name": "Sidebar",
        "Name[ar]": "شريط جانبي",
        "Name[bg]": "Странична лента",
        "Name[ca@valencia]": "Barra lateral",
        "Name[ca]": "Barra lateral",
        "Name[cs]": "Postranní panel",
        "Name[de]": "Seitenleiste",
        "Name[en_GB]": "Sidebar",
        "Name[eo]": "Flankbreto",
        "Name[es]": "Barra lateral",
        "Name[eu]": "Albo-barra",
        "Name[fi]": "Sivupalkki",
        "Name[fr]": "Panneau latéral",
        "Name[gl]": "Barra lateral",
        "Name[ia]": "Barra lateral",
        "Name[it]": "Barra laterale",
        "Name[ka]": "გვერდითა ზოლი",
        "Name[ko]": "사이드바",
        "Name[nl]": "Zijbalk",
        "Name[nn]": "Sidestolpe",
        "Name[pl]": "Pasek boczny",
        "Name[pt_BR]": "Barra lateral",
        "Name[sl]": "Stranski drsnik",
        "Name[tr]": "Kenar Çubuğu",
        "Name[uk]": "Бічна панель",
        "Name[x-test]": "xxSidebarxx",
        "Name[zh_CN]": "侧边栏",
        "Name[zh_TW]": "側邊欄",
        "Version": "1.0"
    },
    "X-Plasma-API": "declarativeappletscript",
    "X-Plasma-MainScript": "ui/main.qml"
}
