{
    "KPlugin": {
        "Authors": [
            {
                "Email": "damu@iki.fi",
                "Name": "Petri Damstén",
                "Name[ar]": "Petri Damstén",
                "Name[ast]": "Petri Damstén",
                "Name[az]": "Petri Damstén",
                "Name[bg]": "Petri Damstén",
                "Name[ca@valencia]": "Petri Damstén",
                "Name[ca]": "Petri Damstén",
                "Name[cs]": "Petri Damstén",
                "Name[de]": "Petri Damstén",
                "Name[en_GB]": "Petri Damstén",
                "Name[eo]": "Petri Damstén",
                "Name[es]": "Petri Damstén",
                "Name[eu]": "Petri Damstén",
                "Name[fi]": "Petri Damstén",
                "Name[fr]": "Petri Damstén",
                "Name[gl]": "Petri Damstén",
                "Name[ia]": "Petri Damstén",
                "Name[id]": "Petri Damstén",
                "Name[is]": "Petri Damstén",
                "Name[it]": "Petri Damstén",
                "Name[ja]": "Petri Damstén",
                "Name[ka]": "პეტრი დამშტენი",
                "Name[ko]": "Petri Damstén",
                "Name[lt]": "Petri Damstén",
                "Name[nl]": "Petri Damstén",
                "Name[nn]": "Petri Damstén",
                "Name[pl]": "Petri Damstén",
                "Name[pt]": "Petri Damstén",
                "Name[pt_BR]": "Petri Damstén",
                "Name[ro]": "Petri Damstén",
                "Name[ru]": "Petri Damstén",
                "Name[sk]": "Petri Damstén",
                "Name[sl]": "Petri Damstén",
                "Name[sv]": "Petri Damstén",
                "Name[tr]": "Petri Damstén",
                "Name[uk]": "Petri Damstén",
                "Name[vi]": "Petri Damstén",
                "Name[x-test]": "xxPetri Damsténxx",
                "Name[zh_CN]": "Petri Damstén",
                "Name[zh_TW]": "Petri Damstén"
            }
        ],
        "Description": "Convert values to different units",
        "Description[ar]": "حول قيمة الى وحدات مختلفة",
        "Description[az]": "Dəyərləri fərqli vahidlərə çevirir",
        "Description[bg]": "Преобразуване на стойности в други единици",
        "Description[ca@valencia]": "Convertix valors a diferents unitats",
        "Description[ca]": "Converteix valors a diferents unitats",
        "Description[cs]": "Převod jednotek",
        "Description[de]": "Werte in verschiedene Einheiten umrechnen",
        "Description[en_GB]": "Convert values to different units",
        "Description[eo]": "Konverti valorojn al malsamaj unuoj",
        "Description[es]": "Convierte valores a distintas unidades",
        "Description[eu]": "Balioak unitate ezberdinetara bihurtzen ditu",
        "Description[fi]": "Muunna arvoja eri yksiköihin",
        "Description[fr]": "Convertir les valeurs vers des unités différentes",
        "Description[gl]": "Converte valores entre distintas unidades",
        "Description[ia]": "Converte valores a unitates differente",
        "Description[id]": "Konversikan nilai ke satuan yang berbeda",
        "Description[is]": "Umbreyta gildum í aðrar einingar",
        "Description[it]": "Converte valori tra unità di misura differenti",
        "Description[ja]": "数値を他の単位に変換します",
        "Description[ka]": "მნიშვნელობების სხვადასხვა ერთეულებში გადაყვანა",
        "Description[ko]": "서로 다른 단위간을 전환합니다",
        "Description[lt]": "Konvertuoti dydžius į skirtingus vienetus",
        "Description[nl]": "Converteert waarden naar verschillende eenheden",
        "Description[nn]": "Gjer om mellom ulike einingar",
        "Description[pl]": "Przelicza wartości na inne jednostki",
        "Description[pt]": "Converter os valores para diferentes unidades",
        "Description[pt_BR]": "Converte valores para diferentes unidades",
        "Description[ro]": "Convertește valori în diferite unități",
        "Description[ru]": "Преобразование величин в другие единицы",
        "Description[sk]": "Prevod hodnôt na iné jednotky",
        "Description[sl]": "Pretvori vrednosti v različne enote",
        "Description[sv]": "Konverterar värden till andra enheter",
        "Description[tr]": "Değerleri değişik birimlere dönüştür",
        "Description[uk]": "Перетворення значень у різних одиницях",
        "Description[vi]": "Đổi các giá trị sang các đơn vị khác nhau",
        "Description[x-test]": "xxConvert values to different unitsxx",
        "Description[zh_CN]": "转换数值到不同单位",
        "Description[zh_TW]": "將數值轉換成不同單位",
        "EnabledByDefault": true,
        "Icon": "accessories-calculator",
        "License": "GPL",
        "Name": "Unit Converter",
        "Name[ar]": "محول الوحدات",
        "Name[az]": "Ölçü vahidi çeviricisi",
        "Name[bg]": "Преобразовател на единици",
        "Name[ca@valencia]": "Convertidor d'unitats",
        "Name[ca]": "Convertidor d'unitats",
        "Name[cs]": "Převod jednotek",
        "Name[de]": "Einheiten-Umrechner",
        "Name[en_GB]": "Unit Converter",
        "Name[eo]": "Unuo-Konvertilo",
        "Name[es]": "Conversor de unidades",
        "Name[eu]": "Unitate bihurtzailea",
        "Name[fi]": "Yksikkömuuntaja",
        "Name[fr]": "Convertisseur d'unités",
        "Name[gl]": "Convertedor de unidades",
        "Name[ia]": "Convertitor de unitate",
        "Name[id]": "Pengonversi Satuan",
        "Name[is]": "Einingaumbreyting",
        "Name[it]": "Convertitore di unità",
        "Name[ja]": "単位変換器",
        "Name[ka]": "ერთეულების გადამყვანი",
        "Name[ko]": "단위 변환기",
        "Name[lt]": "Vienetų keitiklis",
        "Name[nl]": "Eenheden converteren",
        "Name[nn]": "Einingsomrekning",
        "Name[pl]": "Przelicznik jednostek",
        "Name[pt]": "Conversor de Unidades",
        "Name[pt_BR]": "Conversor de unidades",
        "Name[ro]": "Convertor de unități",
        "Name[ru]": "Преобразование величин",
        "Name[sk]": "Premena jednotiek",
        "Name[sl]": "Pretvornik enot",
        "Name[sv]": "Enhetskonvertering",
        "Name[tr]": "Birim Dönüştürücü",
        "Name[uk]": "Перетворювач одиниць",
        "Name[vi]": "Trình đổi đơn vị",
        "Name[x-test]": "xxUnit Converterxx",
        "Name[zh_CN]": "单位转换器",
        "Name[zh_TW]": "單位轉換"
    }
}
